{
  "parent": "minecraft:recipes/root",
  "rewards": {
    "recipes": [
      "chocolate:milk_chocolate_bucket_2"
    ]
  },
  "criteria": {
    "has_chocolate": {
      "trigger": "minecraft:inventory_changed",
      "conditions": {
        "items": [
          {
            "items": [
              "chocolate:milk_chocolate"
            ]
          }
        ]
      }
    },
    "has_the_recipe": {
      "trigger": "minecraft:recipe_unlocked",
      "conditions": {
        "recipe": "chocolate:milk_chocolate_bucket_2"
      }
    }
  },
  "requirements": [
    [
      "has_chocolate",
      "has_the_recipe"
    ]
  ]
}